…
``` r
html <- read_html(path(dir_source, "access-2020-05-28.html"))

date <- extract_date(html)
```

``` r
extract_data(html, date)
```

    ## # A tibble: 99 x 6
    ##    date       county      tests cases recovered deaths
    ##    <date>     <chr>       <dbl> <dbl>     <dbl>  <dbl>
    ##  1 2020-05-28 Polk        22393  3920      1637    118
    ##  2 2020-05-28 Woodbury    10737  2668      1405     31
    ##  3 2020-05-28 Black Hawk   8833  1716       979     43
    ##  4 2020-05-28 Linn         8688   941       760     76
    ##  5 2020-05-28 Marshall     3388   882       498     15
    ##  6 2020-05-28 Dallas       4536   876       557     17
    ##  7 2020-05-28 Buena Vista  3906   701        58      0
    ##  8 2020-05-28 Johnson      6717   607       383      8
    ##  9 2020-05-28 Muscatine    2925   549       384     41
    ## 10 2020-05-28 Wapello      2225   542       218      4
    ## # … with 89 more rows
…
