…
    county = ifelse(is.na(fips), NA_character_, county)
  ) %>%
  group_by(county) %>%
  mutate(
    across(
      c(cases, deaths, tests, recovered),
      ~ifelse(!is.na(county), cummin(.x), .x)
    ),
    active_cases = cases - deaths - recovered
  ) %>%
  ungroup() %>%
  print()
```

    ## # A tibble: 11,279 x 8
    ##    date        fips county      cases deaths tests recovered active_cases
    ##    <date>     <dbl> <chr>       <dbl>  <dbl> <dbl>     <dbl>        <dbl>
    ##  1 2020-07-24 19153 Polk         8822    191 74705      5782         2849
    ##  2 2020-07-24 19193 Woodbury     3517     47 19509      3168          302
    ##  3 2020-07-24 19013 Black Hawk   2785     61 21493      1994          730
    ##  4 2020-07-24 19021 Buena Vista  1769     12  7586      1677           80
    ##  5 2020-07-24 19113 Linn         1727     87 28179      1352          288
    ##  6 2020-07-24 19103 Johnson      1705     10 21593      1119          576
    ##  7 2020-07-24 19049 Dallas       1631     34 14677      1133          464
    ##  8 2020-07-24 19163 Scott        1411     11 20893       684          716
    ##  9 2020-07-24 19061 Dubuque      1311     26 18166       488          797
    ## 10 2020-07-24 19127 Marshall     1263     21  7327       989          253
    ## # … with 11,269 more rows
…
